b0:f,b1:f
b0:t,b1:t
b0:t,b1:f
b0:t,b1:t
b0:t,b1:f
b0:f,b1:t
b0:f,b1:t
b0:f,b1:t
b0:f,b1:f
b0:f,b1:t
b0:f,b1:t
b0:f,b1:f
b0:f,b1:t
b0:t,b1:f
b0:t,b1:t
b0:t,b1:t
b0:f,b1:t
b0:t,b1:f
b0:t,b1:t
b0:t,b1:f
b0:f,b1:t
b0:t,b1:t
b0:f,b1:t
b0:f,b1:t
b0:t,b1:t
b0:t,b1:f
b0:t,b1:t
b0:f,b1:t
b0:f,b1:f
b0:f,b1:t
b0:f,b1:t
b0:t,b1:f
b0:f,b1:f
b0:t,b1:t
b0:t,b1:t
b0:f,b1:t
b0:f,b1:t
b0:f,b1:f
b0:t,b1:t
b0:f,b1:f
b0:f,b1:t
b0:f,b1:f
b0:t,b1:f
b0:t,b1:f
b0:f,b1:f
b0:f,b1:f
b0:t,b1:f
b0:t,b1:t
b0:f,b1:t
b0:t,b1:t
b0:f,b1:f
b0:t,b1:t
b0:t,b1:t
b0:f,b1:f
b0:f,b1:t
b0:f,b1:t
b0:f,b1:t
b0:f,b1:t
b0:f,b1:t
b0:t,b1:f
b0:t,b1:f
b0:t,b1:f
b0:f,b1:t
b0:f,b1:f
b0:t,b1:f
b0:t,b1:f
b0:f,b1:f
b0:f,b1:t
b0:f,b1:t
b0:t,b1:f
b0:f,b1:f
b0:f,b1:t
b0:f,b1:t
b0:t,b1:t
b0:t,b1:t
b0:f,b1:t
b0:f,b1:t
b0:t,b1:t
b0:f,b1:f
b0:t,b1:f
b0:f,b1:t
b0:f,b1:t
b0:t,b1:t
b0:t,b1:t
b0:t,b1:f
b0:f,b1:t
b0:f,b1:t
b0:f,b1:f
b0:t,b1:f
b0:f,b1:f
b0:f,b1:t
b0:t,b1:f
b0:t,b1:t
b0:f,b1:f
b0:f,b1:f
b0:t,b1:t
b0:t,b1:f
b0:t,b1:t
b0:t,b1:t
b0:f,b1:t
